digraph { 
"A Tail of Two Cats" [color=black style=filled fillcolor=white];
"Icthlarin's Little Helper" -> "A Tail of Two Cats"; 
"A Tail of Two Cats" [color=black style=filled fillcolor=white];
"Icthlarin's Little Helper" [color=black style=filled fillcolor=white];
"Gertrude's Cat" -> "Icthlarin's Little Helper"; 
"Icthlarin's Little Helper" [color=black style=filled fillcolor=white];
"Gertrude's Cat" [color=black style=filled fillcolor=green];
"Prince Ali Rescue" -> "Icthlarin's Little Helper"; 
"Icthlarin's Little Helper" [color=black style=filled fillcolor=white];
"Prince Ali Rescue" [color=black style=filled fillcolor=green];
}