digraph { 
"Blood Runs Deep" [color=black style=filled fillcolor=grey];
"Horror from the Deep" -> "Blood Runs Deep"; 
"Blood Runs Deep" [color=black style=filled fillcolor=grey];
"Horror from the Deep" [color=black style=filled fillcolor=orange];
"Bar Crawl (miniquest)" -> "Horror from the Deep"; 
"Horror from the Deep" [color=black style=filled fillcolor=orange];
"Bar Crawl (miniquest)" [color=black style=filled fillcolor=green];
"Dream Mentor" -> "Blood Runs Deep"; 
"Blood Runs Deep" [color=black style=filled fillcolor=grey];
"Dream Mentor" [color=black style=filled fillcolor=orange];
"Lunar Diplomacy" -> "Dream Mentor"; 
"Dream Mentor" [color=black style=filled fillcolor=orange];
"Lunar Diplomacy" [color=black style=filled fillcolor=white];
"The Fremennik Trials" -> "Lunar Diplomacy"; 
"Lunar Diplomacy" [color=black style=filled fillcolor=white];
"The Fremennik Trials" [color=black style=filled fillcolor=green];
"Lost City" -> "Lunar Diplomacy"; 
"Lunar Diplomacy" [color=black style=filled fillcolor=white];
"Lost City" [color=black style=filled fillcolor=green];
"Glorious Memories" -> "Blood Runs Deep"; 
"Blood Runs Deep" [color=black style=filled fillcolor=grey];
"Glorious Memories" [color=black style=filled fillcolor=grey];
"Mountain Daughter" -> "Glorious Memories"; 
"Glorious Memories" [color=black style=filled fillcolor=grey];
"Mountain Daughter" [color=black style=filled fillcolor=orange];
"The Fremennik Isles" -> "Glorious Memories"; 
"Glorious Memories" [color=black style=filled fillcolor=grey];
"The Fremennik Isles" [color=black style=filled fillcolor=orange];
"The Fremennik Trials" -> "The Fremennik Isles"; 
"The Fremennik Isles" [color=black style=filled fillcolor=orange];
"The Fremennik Trials" [color=black style=filled fillcolor=green];
"Royal Trouble" -> "Glorious Memories"; 
"Glorious Memories" [color=black style=filled fillcolor=grey];
"Royal Trouble" [color=black style=filled fillcolor=white];
"Throne of Miscellania" -> "Royal Trouble"; 
"Royal Trouble" [color=black style=filled fillcolor=white];
"Throne of Miscellania" [color=black style=filled fillcolor=orange];
"The Fremennik Trials" -> "Throne of Miscellania"; 
"Throne of Miscellania" [color=black style=filled fillcolor=orange];
"The Fremennik Trials" [color=black style=filled fillcolor=green];
}