digraph { 
"Dealing with Scabaras" [color=black style=filled fillcolor=white];
"Contact!" -> "Dealing with Scabaras"; 
"Dealing with Scabaras" [color=black style=filled fillcolor=white];
"Contact!" [color=black style=filled fillcolor=orange];
"Icthlarin's Little Helper" -> "Contact!"; 
"Contact!" [color=black style=filled fillcolor=orange];
"Icthlarin's Little Helper" [color=black style=filled fillcolor=white];
"Gertrude's Cat" -> "Icthlarin's Little Helper"; 
"Icthlarin's Little Helper" [color=black style=filled fillcolor=white];
"Gertrude's Cat" [color=black style=filled fillcolor=green];
"Prince Ali Rescue" -> "Icthlarin's Little Helper"; 
"Icthlarin's Little Helper" [color=black style=filled fillcolor=white];
"Prince Ali Rescue" [color=black style=filled fillcolor=green];
}