digraph { 
"Elemental Workshop II" [color=black style=filled fillcolor=white];
"Elemental Workshop I" -> "Elemental Workshop II"; 
"Elemental Workshop II" [color=black style=filled fillcolor=white];
"Elemental Workshop I" [color=black style=filled fillcolor=green];
}