digraph { 
"Forgettable Tale of a Drunken Dwarf" [color=black style=filled fillcolor=white];
"The Giant Dwarf" -> "Forgettable Tale of a Drunken Dwarf"; 
"Forgettable Tale of a Drunken Dwarf" [color=black style=filled fillcolor=white];
"The Giant Dwarf" [color=black style=filled fillcolor=orange];
"Fishing Contest" -> "Forgettable Tale of a Drunken Dwarf"; 
"Forgettable Tale of a Drunken Dwarf" [color=black style=filled fillcolor=white];
"Fishing Contest" [color=black style=filled fillcolor=green];
}