digraph { 
"Horror from the Deep" [color=black style=filled fillcolor=orange];
"Bar Crawl (miniquest)" -> "Horror from the Deep"; 
"Horror from the Deep" [color=black style=filled fillcolor=orange];
"Bar Crawl (miniquest)" [color=black style=filled fillcolor=green];
}