digraph { 
"Hunt for Red Raktuber" [color=black style=filled fillcolor=grey];
"Cold War" -> "Hunt for Red Raktuber"; 
"Hunt for Red Raktuber" [color=black style=filled fillcolor=grey];
"Cold War" [color=black style=filled fillcolor=white];
"Sea Slug" -> "Hunt for Red Raktuber"; 
"Hunt for Red Raktuber" [color=black style=filled fillcolor=grey];
"Sea Slug" [color=black style=filled fillcolor=yellow];
}