digraph { 
"In Aid of the Myreque" [color=black style=filled fillcolor=white];
"In Search of the Myreque" -> "In Aid of the Myreque"; 
"In Aid of the Myreque" [color=black style=filled fillcolor=white];
"In Search of the Myreque" [color=black style=filled fillcolor=white];
"Nature Spirit" -> "In Search of the Myreque"; 
"In Search of the Myreque" [color=black style=filled fillcolor=white];
"Nature Spirit" [color=black style=filled fillcolor=green];
"Priest in Peril" -> "Nature Spirit"; 
"Nature Spirit" [color=black style=filled fillcolor=green];
"Priest in Peril" [color=black style=filled fillcolor=green];
"The Restless Ghost" -> "Nature Spirit"; 
"Nature Spirit" [color=black style=filled fillcolor=green];
"The Restless Ghost" [color=black style=filled fillcolor=green];
}