digraph { 
"Kennith's Concerns" [color=black style=filled fillcolor=white];
"The Slug Menace" -> "Kennith's Concerns"; 
"Kennith's Concerns" [color=black style=filled fillcolor=white];
"The Slug Menace" [color=black style=filled fillcolor=white];
"Sea Slug" -> "The Slug Menace"; 
"The Slug Menace" [color=black style=filled fillcolor=white];
"Sea Slug" [color=black style=filled fillcolor=yellow];
"Wanted!" -> "The Slug Menace"; 
"The Slug Menace" [color=black style=filled fillcolor=white];
"Wanted!" [color=black style=filled fillcolor=white];
"Recruitment Drive" -> "Wanted!"; 
"Wanted!" [color=black style=filled fillcolor=white];
"Recruitment Drive" [color=black style=filled fillcolor=green];
"Enter the Abyss (miniquest)" -> "Wanted!"; 
"Wanted!" [color=black style=filled fillcolor=white];
"Enter the Abyss (miniquest)" [color=black style=filled fillcolor=green];
}