digraph { 
"Land of the Goblins" [color=black style=filled fillcolor=white];
"Another Slice of H.A.M." -> "Land of the Goblins"; 
"Land of the Goblins" [color=black style=filled fillcolor=white];
"Another Slice of H.A.M." [color=black style=filled fillcolor=white];
"Death to the Dorgeshuun" -> "Another Slice of H.A.M."; 
"Another Slice of H.A.M." [color=black style=filled fillcolor=white];
"Death to the Dorgeshuun" [color=black style=filled fillcolor=orange];
"The Lost Tribe" -> "Death to the Dorgeshuun"; 
"Death to the Dorgeshuun" [color=black style=filled fillcolor=orange];
"The Lost Tribe" [color=black style=filled fillcolor=green];
"Goblin Diplomacy" -> "Another Slice of H.A.M."; 
"Another Slice of H.A.M." [color=black style=filled fillcolor=white];
"Goblin Diplomacy" [color=black style=filled fillcolor=green];
"The Giant Dwarf" -> "Another Slice of H.A.M."; 
"Another Slice of H.A.M." [color=black style=filled fillcolor=white];
"The Giant Dwarf" [color=black style=filled fillcolor=orange];
"Fishing Contest" -> "Land of the Goblins"; 
"Land of the Goblins" [color=black style=filled fillcolor=white];
"Fishing Contest" [color=black style=filled fillcolor=green];
}