digraph { 
"Making History" [color=black style=filled fillcolor=white];
"The Restless Ghost" -> "Making History"; 
"Making History" [color=black style=filled fillcolor=white];
"The Restless Ghost" [color=black style=filled fillcolor=green];
}