digraph { 
"Nature Spirit" [color=black style=filled fillcolor=green];
"Priest in Peril" -> "Nature Spirit"; 
"Nature Spirit" [color=black style=filled fillcolor=green];
"Priest in Peril" [color=black style=filled fillcolor=green];
"The Restless Ghost" -> "Nature Spirit"; 
"Nature Spirit" [color=black style=filled fillcolor=green];
"The Restless Ghost" [color=black style=filled fillcolor=green];
}