digraph { 
"One Small Favour" [color=black style=filled fillcolor=white];
"Shilo Village" -> "One Small Favour"; 
"One Small Favour" [color=black style=filled fillcolor=white];
"Shilo Village" [color=black style=filled fillcolor=white];
"Jungle Potion" -> "Shilo Village"; 
"Shilo Village" [color=black style=filled fillcolor=white];
"Jungle Potion" [color=black style=filled fillcolor=green];
}