digraph { 
"Recipe for Disaster" [color=black style=filled fillcolor=white];
"Cook's Assistant" -> "Recipe for Disaster"; 
"Recipe for Disaster" [color=black style=filled fillcolor=white];
"Cook's Assistant" [color=black style=filled fillcolor=green];
"Big Chompy Bird Hunting" -> "Recipe for Disaster"; 
"Recipe for Disaster" [color=black style=filled fillcolor=white];
"Big Chompy Bird Hunting" [color=black style=filled fillcolor=green];
"Biohazard" -> "Recipe for Disaster"; 
"Recipe for Disaster" [color=black style=filled fillcolor=white];
"Biohazard" [color=black style=filled fillcolor=yellow];
"Plague City" -> "Biohazard"; 
"Biohazard" [color=black style=filled fillcolor=yellow];
"Plague City" [color=black style=filled fillcolor=green];
"Desert Treasure" -> "Recipe for Disaster"; 
"Recipe for Disaster" [color=black style=filled fillcolor=white];
"Desert Treasure" [color=black style=filled fillcolor=yellow];
"The Dig Site" -> "Desert Treasure"; 
"Desert Treasure" [color=black style=filled fillcolor=yellow];
"The Dig Site" [color=black style=filled fillcolor=green];
"Troll Stronghold" -> "Desert Treasure"; 
"Desert Treasure" [color=black style=filled fillcolor=yellow];
"Troll Stronghold" [color=black style=filled fillcolor=green];
"Death Plateau" -> "Troll Stronghold"; 
"Troll Stronghold" [color=black style=filled fillcolor=green];
"Death Plateau" [color=black style=filled fillcolor=green];
"Fishing Contest" -> "Recipe for Disaster"; 
"Recipe for Disaster" [color=black style=filled fillcolor=white];
"Fishing Contest" [color=black style=filled fillcolor=green];
"Gertrude's Cat" -> "Recipe for Disaster"; 
"Recipe for Disaster" [color=black style=filled fillcolor=white];
"Gertrude's Cat" [color=black style=filled fillcolor=green];
"Goblin Diplomacy" -> "Recipe for Disaster"; 
"Recipe for Disaster" [color=black style=filled fillcolor=white];
"Goblin Diplomacy" [color=black style=filled fillcolor=green];
"Horror from the Deep" -> "Recipe for Disaster"; 
"Recipe for Disaster" [color=black style=filled fillcolor=white];
"Horror from the Deep" [color=black style=filled fillcolor=orange];
"Bar Crawl (miniquest)" -> "Horror from the Deep"; 
"Horror from the Deep" [color=black style=filled fillcolor=orange];
"Bar Crawl (miniquest)" [color=black style=filled fillcolor=green];
"Heroes' Quest" -> "Recipe for Disaster"; 
"Recipe for Disaster" [color=black style=filled fillcolor=white];
"Heroes' Quest" [color=black style=filled fillcolor=yellow];
"Shield of Arrav" -> "Heroes' Quest"; 
"Heroes' Quest" [color=black style=filled fillcolor=yellow];
"Shield of Arrav" [color=black style=filled fillcolor=green];
"Dragon Slayer" -> "Heroes' Quest"; 
"Heroes' Quest" [color=black style=filled fillcolor=yellow];
"Dragon Slayer" [color=black style=filled fillcolor=green];
"Jungle Potion" -> "Recipe for Disaster"; 
"Recipe for Disaster" [color=black style=filled fillcolor=white];
"Jungle Potion" [color=black style=filled fillcolor=green];
"Lost City" -> "Recipe for Disaster"; 
"Recipe for Disaster" [color=black style=filled fillcolor=white];
"Lost City" [color=black style=filled fillcolor=green];
"Monkey Madness" -> "Recipe for Disaster"; 
"Recipe for Disaster" [color=black style=filled fillcolor=white];
"Monkey Madness" [color=black style=filled fillcolor=yellow];
"The Grand Tree" -> "Monkey Madness"; 
"Monkey Madness" [color=black style=filled fillcolor=yellow];
"The Grand Tree" [color=black style=filled fillcolor=green];
"Tree Gnome Village" -> "Monkey Madness"; 
"Monkey Madness" [color=black style=filled fillcolor=yellow];
"Tree Gnome Village" [color=black style=filled fillcolor=green];
"Murder Mystery" -> "Recipe for Disaster"; 
"Recipe for Disaster" [color=black style=filled fillcolor=white];
"Murder Mystery" [color=black style=filled fillcolor=orange];
"Nature Spirit" -> "Recipe for Disaster"; 
"Recipe for Disaster" [color=black style=filled fillcolor=white];
"Nature Spirit" [color=black style=filled fillcolor=green];
"Priest in Peril" -> "Nature Spirit"; 
"Nature Spirit" [color=black style=filled fillcolor=green];
"Priest in Peril" [color=black style=filled fillcolor=green];
"The Restless Ghost" -> "Nature Spirit"; 
"Nature Spirit" [color=black style=filled fillcolor=green];
"The Restless Ghost" [color=black style=filled fillcolor=green];
"Shadow of the Storm" -> "Recipe for Disaster"; 
"Recipe for Disaster" [color=black style=filled fillcolor=white];
"Shadow of the Storm" [color=black style=filled fillcolor=orange];
"Demon Slayer" -> "Shadow of the Storm"; 
"Shadow of the Storm" [color=black style=filled fillcolor=orange];
"Demon Slayer" [color=black style=filled fillcolor=green];
"The Golem" -> "Shadow of the Storm"; 
"Shadow of the Storm" [color=black style=filled fillcolor=orange];
"The Golem" [color=black style=filled fillcolor=green];
"Witch's House" -> "Recipe for Disaster"; 
"Recipe for Disaster" [color=black style=filled fillcolor=white];
"Witch's House" [color=black style=filled fillcolor=green];
}