digraph { 
"Scorpion Catcher" [color=black style=filled fillcolor=green];
"Bar Crawl (miniquest)" -> "Scorpion Catcher"; 
"Scorpion Catcher" [color=black style=filled fillcolor=green];
"Bar Crawl (miniquest)" [color=black style=filled fillcolor=green];
}