digraph { 
"Shilo Village" [color=black style=filled fillcolor=white];
"Jungle Potion" -> "Shilo Village"; 
"Shilo Village" [color=black style=filled fillcolor=white];
"Jungle Potion" [color=black style=filled fillcolor=green];
}