digraph { 
"Smoking Kills" [color=black style=filled fillcolor=white];
"The Restless Ghost" -> "Smoking Kills"; 
"Smoking Kills" [color=black style=filled fillcolor=white];
"The Restless Ghost" [color=black style=filled fillcolor=green];
"Icthlarin's Little Helper" -> "Smoking Kills"; 
"Smoking Kills" [color=black style=filled fillcolor=white];
"Icthlarin's Little Helper" [color=black style=filled fillcolor=white];
"Gertrude's Cat" -> "Icthlarin's Little Helper"; 
"Icthlarin's Little Helper" [color=black style=filled fillcolor=white];
"Gertrude's Cat" [color=black style=filled fillcolor=green];
"Prince Ali Rescue" -> "Icthlarin's Little Helper"; 
"Icthlarin's Little Helper" [color=black style=filled fillcolor=white];
"Prince Ali Rescue" [color=black style=filled fillcolor=green];
}