digraph { 
"Summer's End" [color=black style=filled fillcolor=orange];
"Spirit of Summer" -> "Summer's End"; 
"Summer's End" [color=black style=filled fillcolor=orange];
"Spirit of Summer" [color=black style=filled fillcolor=white];
"The Restless Ghost" -> "Spirit of Summer"; 
"Spirit of Summer" [color=black style=filled fillcolor=white];
"The Restless Ghost" [color=black style=filled fillcolor=green];
}