digraph { 
"The Great Brain Robbery" [color=black style=filled fillcolor=white];
"Creature of Fenkenstrain" -> "The Great Brain Robbery"; 
"The Great Brain Robbery" [color=black style=filled fillcolor=white];
"Creature of Fenkenstrain" [color=black style=filled fillcolor=green];
"The Restless Ghost" -> "Creature of Fenkenstrain"; 
"Creature of Fenkenstrain" [color=black style=filled fillcolor=green];
"The Restless Ghost" [color=black style=filled fillcolor=green];
"Priest in Peril" -> "Creature of Fenkenstrain"; 
"Creature of Fenkenstrain" [color=black style=filled fillcolor=green];
"Priest in Peril" [color=black style=filled fillcolor=green];
"Cabin Fever" -> "The Great Brain Robbery"; 
"The Great Brain Robbery" [color=black style=filled fillcolor=white];
"Cabin Fever" [color=black style=filled fillcolor=white];
"Pirate's Treasure" -> "Cabin Fever"; 
"Cabin Fever" [color=black style=filled fillcolor=white];
"Pirate's Treasure" [color=black style=filled fillcolor=green];
"Rum Deal" -> "Cabin Fever"; 
"Cabin Fever" [color=black style=filled fillcolor=white];
"Rum Deal" [color=black style=filled fillcolor=orange];
"Recipe for Disaster: Freeing Pirate Pete" -> "The Great Brain Robbery"; 
"The Great Brain Robbery" [color=black style=filled fillcolor=white];
"Recipe for Disaster: Freeing Pirate Pete" [color=black style=filled fillcolor=white];
"Recipe for Disaster: Another Cook's Quest" -> "Recipe for Disaster: Freeing Pirate Pete"; 
"Recipe for Disaster: Freeing Pirate Pete" [color=black style=filled fillcolor=white];
"Recipe for Disaster: Another Cook's Quest" [color=black style=filled fillcolor=white];
"Cook's Assistant" -> "Recipe for Disaster: Another Cook's Quest"; 
"Recipe for Disaster: Another Cook's Quest" [color=black style=filled fillcolor=white];
"Cook's Assistant" [color=black style=filled fillcolor=green];
"Cook's Assistant" -> "Recipe for Disaster: Freeing Pirate Pete"; 
"Recipe for Disaster: Freeing Pirate Pete" [color=black style=filled fillcolor=white];
"Cook's Assistant" [color=black style=filled fillcolor=green];
"Recipe for Disaster: Another Cook's Quest" -> "The Great Brain Robbery"; 
"The Great Brain Robbery" [color=black style=filled fillcolor=white];
"Recipe for Disaster: Another Cook's Quest" [color=black style=filled fillcolor=white];
"Cook's Assistant" -> "Recipe for Disaster: Another Cook's Quest"; 
"Recipe for Disaster: Another Cook's Quest" [color=black style=filled fillcolor=white];
"Cook's Assistant" [color=black style=filled fillcolor=green];
"Cook's Assistant" -> "The Great Brain Robbery"; 
"The Great Brain Robbery" [color=black style=filled fillcolor=white];
"Cook's Assistant" [color=black style=filled fillcolor=green];
}