digraph { 
"Troll Stronghold" [color=black style=filled fillcolor=green];
"Death Plateau" -> "Troll Stronghold"; 
"Troll Stronghold" [color=black style=filled fillcolor=green];
"Death Plateau" [color=black style=filled fillcolor=green];
}