digraph { 
"Underground Pass" [color=black style=filled fillcolor=orange];
"Biohazard" -> "Underground Pass"; 
"Underground Pass" [color=black style=filled fillcolor=orange];
"Biohazard" [color=black style=filled fillcolor=yellow];
"Plague City" -> "Biohazard"; 
"Biohazard" [color=black style=filled fillcolor=yellow];
"Plague City" [color=black style=filled fillcolor=green];
}