digraph { 
"Within the Light" [color=black style=filled fillcolor=grey];
"Mourning's End Part II" -> "Within the Light"; 
"Within the Light" [color=black style=filled fillcolor=grey];
"Mourning's End Part II" [color=black style=filled fillcolor=orange];
"Mourning's End Part I" -> "Mourning's End Part II"; 
"Mourning's End Part II" [color=black style=filled fillcolor=orange];
"Mourning's End Part I" [color=black style=filled fillcolor=orange];
"Roving Elves" -> "Mourning's End Part I"; 
"Mourning's End Part I" [color=black style=filled fillcolor=orange];
"Roving Elves" [color=black style=filled fillcolor=green];
"Regicide" -> "Roving Elves"; 
"Roving Elves" [color=black style=filled fillcolor=green];
"Regicide" [color=black style=filled fillcolor=orange];
"Underground Pass" -> "Regicide"; 
"Regicide" [color=black style=filled fillcolor=orange];
"Underground Pass" [color=black style=filled fillcolor=orange];
"Biohazard" -> "Underground Pass"; 
"Underground Pass" [color=black style=filled fillcolor=orange];
"Biohazard" [color=black style=filled fillcolor=yellow];
"Plague City" -> "Biohazard"; 
"Biohazard" [color=black style=filled fillcolor=yellow];
"Plague City" [color=black style=filled fillcolor=green];
"Waterfall Quest" -> "Roving Elves"; 
"Roving Elves" [color=black style=filled fillcolor=green];
"Waterfall Quest" [color=black style=filled fillcolor=green];
"Sheep Herder" -> "Mourning's End Part I"; 
"Mourning's End Part I" [color=black style=filled fillcolor=orange];
"Sheep Herder" [color=black style=filled fillcolor=green];
"Big Chompy Bird Hunting" -> "Mourning's End Part I"; 
"Mourning's End Part I" [color=black style=filled fillcolor=orange];
"Big Chompy Bird Hunting" [color=black style=filled fillcolor=green];
}