digraph { 
"Zogre Flesh Eaters" [color=black style=filled fillcolor=yellow];
"Big Chompy Bird Hunting" -> "Zogre Flesh Eaters"; 
"Zogre Flesh Eaters" [color=black style=filled fillcolor=yellow];
"Big Chompy Bird Hunting" [color=black style=filled fillcolor=green];
}